{
    "data":[
       {  
          "id": 1,
          "module":"Open PO",
          "subject":"New Open PO #1001",
          "date":"2019-09-13",
          "status":"Open"
       },
       {  
          "id": 2,
          "module":"CAPA",
          "subject":"New CAPA #841",
          "date":"2020-09-13",
          "status":"In Progress"
       },
       {  
          "id": 3,
          "module":"Invoice",
          "subject":"New Invoice #401",
          "date":"2022-09-13",
          "status":"Closed"
       }
    ]
}