{
    "data":[
       {  
          "id":"001",
          "line":1,
          "item_num":"A-10203-00",
          "item_desc":"ALU CAP 20MM Blue Varnish",
          "uom":"Pcs",
          "currency":"200",
          "unit_price":"250",
          "quantity":"2022-02-20",
          "amount":"2022-02-21",
          "ship_to":"DXM HQ Palembang",
          "arrival_at_wh":"Submitted",
          "arrival_at_site":"2022-03-22",
          "est_arrival_at_site":"2022-04-22",
          "po_type":"Local",
          "note_to_supplier":"-",
          "attachment":"-",
          "confirm_date":"-",
          "loe":"O",
          "status":"Confirmed"
       },
       {  
          "id":"002",
          "line":2,
          "item_num":"B-20304-00",
          "item_desc":"ALU CAP 20MM Red Varnish",
          "uom":"Pcs",
          "currency":"200",
          "unit_price":"250",
          "quantity":"2022-02-20",
          "amount":"2022-02-22",
          "ship_to":"DXM HQ Palembang",
          "arrival_at_wh":"Submitted",
          "arrival_at_site":"2022-03-22",
          "est_arrival_at_site":"2022-04-22",
          "po_type":"Local",
          "note_to_supplier":"-",
          "attachment":"-",
          "confirm_date":"-",
          "loe":"O",
          "status":"Confirmed"
       }
    ],
    "data1":[
        {  
          "id":"003",
          "line":2,
          "item_num":"C-20304-00",
          "item_desc":"ALU CAP 20MM Red Varnish",
          "uom":"Pcs",
          "currency":"200",
          "unit_price":"250",
          "quantity":"2022-02-20",
          "amount":"2022-02-22",
          "ship_to":"DXM HQ Palembang",
          "arrival_at_wh":"Submitted",
          "arrival_at_site":"2022-03-22",
          "est_arrival_at_site":"2022-04-22",
          "po_type":"Local",
          "note_to_supplier":"-",
          "attachment":"-",
          "confirm_date":"-",
          "loe":"O",
          "status":"Confirmed"
         }

    ]
}