{
    "data":[
       {  
          "id":"001",
          "line":1,
          "item_num":"A-10203-00",
          "item_desc":"ALU CAP 20MM Blue Varnish",
          "uom":"Pcs",
          "qty_order":"200",
          "qty_ship":"250",
          "delivery_date":"2022-02-20",
          "arrival_at_site_date":"2022-02-21",
          "ship_to":"DXM HQ Palembang",
          "status":"Submitted"
       },
       {  
          "id":"002",
          "line":2,
          "item_num":"B-20304-00",
          "item_desc":"ALU CAP 20MM Red Varnish",
          "uom":"Pcs",
          "qty_order":"200",
          "qty_ship":"250",
          "delivery_date":"2022-02-20",
          "arrival_at_site_date":"2022-02-22",
          "ship_to":"DXM HQ Palembang",
          "status":"Submitted"
       },
       {  
          "id":"003",
          "line":3,
          "item_num":"C-30405-00",
          "item_desc":"ALU CAP 20MM Green Varnish",
          "uom":"Pcs",
          "qty_order":"200",
          "qty_ship":"250",
          "delivery_date":"2022-02-20",
          "arrival_at_site_date":"2022-02-23",
          "ship_to":"DXM HQ Palembang",
          "status":"Submitted"
       }
    ],
    "data1":[
       {
         "id":"004",
         "line":3,
         "item_num":"C-30405-00",
         "item_desc":"ALU CAP 40MM Black Varnish",
         "uom":"Pcs",
         "qty_order":"300",
         "qty_ship":"500",
         "delivery_date":"2022-02-20",
         "arrival_at_site_date":"2022-02-23",
         "ship_to":"DXM HQ Palembang",
         "status":"Submitted"
       }

    ]
}